{
  "apiVersion": "v1",
  "kind": "Service",
  "metadata": {
    "creationTimestamp": "2016-11-28T06:41:24Z",
    "finalizers": [],
    "name": "nginx-service",
    "namespace": "flight",
    "ownerReferences": [],
    "resourceVersion": "5802960",
    "selfLink": "/api/v1/namespaces/flight/services/nginx-service",
    "uid": "ae6fc35f-b535-11e6-afeb-0ec2a6f1206e"
  },
  "spec": {
    "clusterIP": "100.73.152.77",
    "deprecatedPublicIPs": [],
    "externalIPs": [],
    "loadBalancerSourceRanges": [],
    "ports": [
      {
        "port": 80,
        "protocol": "TCP",
        "targetPort": 9376
      }
    ],
    "selector": {
      "app": "nginx"
    },
    "sessionAffinity": "None",
    "type": "ClusterIP"
  },
  "status": {
    "loadBalancer": {
      "ingress": []
    }
  }
}